<?xml version="1.0" encoding="UTF-8" standalone="no"?>
<!-- Created with Inkscape (http://www.inkscape.org/) -->

<svg
   xmlns:dc="http://purl.org/dc/elements/1.1/"
   xmlns:cc="http://creativecommons.org/ns#"
   xmlns:rdf="http://www.w3.org/1999/02/22-rdf-syntax-ns#"
   xmlns:svg="http://www.w3.org/2000/svg"
   xmlns="http://www.w3.org/2000/svg"
   xmlns:sodipodi="http://sodipodi.sourceforge.net/DTD/sodipodi-0.dtd"
   xmlns:inkscape="http://www.inkscape.org/namespaces/inkscape"
   width="210mm"
   height="297mm"
   viewBox="0 0 210 297"
   version="1.1"
   id="svg8"
   inkscape:version="0.92.2 (5c3e80d, 2017-08-06)"
   sodipodi:docname="timeline.svg">
  <defs
     id="defs2">
    <inkscape:perspective
       sodipodi:type="inkscape:persp3d"
       inkscape:vp_x="0 : 148.5 : 1"
       inkscape:vp_y="0 : 1000 : 0"
       inkscape:vp_z="210 : 148.5 : 1"
       inkscape:persp3d-origin="105 : 99 : 1"
       id="perspective851" />
  </defs>
  <sodipodi:namedview
     id="base"
     pagecolor="#ffffff"
     bordercolor="#666666"
     borderopacity="1.0"
     inkscape:pageopacity="0.0"
     inkscape:pageshadow="2"
     inkscape:zoom="1"
     inkscape:cx="404.73805"
     inkscape:cy="996.10008"
     inkscape:document-units="mm"
     inkscape:current-layer="layer1"
     showgrid="false"
     showguides="true"
     inkscape:guide-bbox="true"
     objecttolerance="1"
     guidetolerance="6"
     inkscape:window-width="1920"
     inkscape:window-height="1017"
     inkscape:window-x="-8"
     inkscape:window-y="-8"
     inkscape:window-maximized="1">
    <sodipodi:guide
       position="-107.85662,147.89359"
       orientation="0,1"
       id="guide5035"
       inkscape:locked="false" />
  </sodipodi:namedview>
  <metadata
     id="metadata5">
    <rdf:RDF>
      <cc:Work
         rdf:about="">
        <dc:format>image/svg+xml</dc:format>
        <dc:type
           rdf:resource="http://purl.org/dc/dcmitype/StillImage" />
        <dc:title />
      </cc:Work>
    </rdf:RDF>
  </metadata>
  <g
     inkscape:label="Layer 1"
     inkscape:groupmode="layer"
     id="layer1"
     style="opacity:1">
    <g
       id="g960-4"
       transform="translate(-7.4155867,-25.198876)"
       style="fill:#2a3b91;fill-opacity:1" />
    <path
       style="fill:none;stroke:#000000;stroke-width:0.26458332px;stroke-linecap:butt;stroke-linejoin:miter;stroke-opacity:1"
       d="m -222.62797,-52.061012 c -1.38183,17.871659 26.43934,50.3491147 26.43934,50.3491147 0,0 27.96191,-33.1400327 25.85894,-50.5973897 -1.56923,-13.026551 -9.88395,-21.941224 -25.49996,-22.357579 -13.77203,-0.36719 -25.70683,8.489235 -26.79832,22.605854 z"
       id="path1118"
       inkscape:connector-curvature="0"
       sodipodi:nodetypes="scsss" />
    <flowRoot
       xml:space="preserve"
       id="flowRoot4978"
       style="font-style:normal;font-weight:normal;font-size:12px;line-height:1.25;font-family:sans-serif;letter-spacing:0px;word-spacing:0px;fill:#ffffff;fill-opacity:1;stroke:none"
       transform="matrix(1.2305397,0,0,0.6602098,343.04577,-247.10415)"><flowRegion
         id="flowRegion4980"
         style="fill:#ffffff"><rect
           id="rect4982"
           width="30.633867"
           height="55.527355"
           x="-323.57144"
           y="433.23398"
           style="fill:#ffffff" /></flowRegion><flowPara
         id="flowPara4984">30.6.2017</flowPara></flowRoot>    <rect
       style="opacity:1;fill:#800000;fill-opacity:1;fill-rule:nonzero;stroke:none;stroke-width:3.36500001;stroke-linecap:round;stroke-linejoin:round;stroke-miterlimit:4;stroke-dasharray:none;stroke-opacity:0.81632649;paint-order:stroke fill markers"
       id="rect4988"
       width="1.1339285"
       height="0.1889881"
       x="-36.474705"
       y="43.755951" />
    <flowRoot
       xml:space="preserve"
       id="flowRoot5000"
       style="font-style:normal;font-weight:normal;font-size:12px;line-height:1.25;font-family:sans-serif;letter-spacing:0px;word-spacing:0px;fill:#000000;fill-opacity:1;stroke:none"
       transform="scale(0.26458333)"><flowRegion
         id="flowRegion5002"
         style=""><rect
           id="rect5004"
           width="21.213203"
           height="28.284271"
           x="-64.346718"
           y="169.33974"
           style="" /></flowRegion><flowPara
         id="flowPara5006" /></flowRoot>    <flowRoot
       xml:space="preserve"
       id="flowRoot5226"
       style="font-style:normal;font-weight:normal;font-size:12px;line-height:1.25;font-family:sans-serif;letter-spacing:0px;word-spacing:0px;fill:#000000;fill-opacity:1;stroke:none"
       transform="scale(0.26458333)"><flowRegion
         id="flowRegion5228"
         style=""><rect
           id="rect5230"
           width="207.88939"
           height="41.719299"
           x="-199.40411"
           y="151.66208"
           style="" /></flowRegion><flowPara
         id="flowPara5232" /></flowRoot>    <g
       id="g4976"
       transform="matrix(1.1525748,0,0,0.69376866,58.037857,-35.798281)"
       style="">
      <path
         sodipodi:nodetypes="cc"
         inkscape:connector-curvature="0"
         id="path827"
         d="m -81.859577,137.17339 c 243.620167,0.18113 158.416374,0.0944 243.620167,0.18113"
         style="fill:none;stroke:#000000;stroke-width:4.53284836;stroke-linecap:butt;stroke-linejoin:miter;stroke-miterlimit:4;stroke-dasharray:none;stroke-opacity:1" />
      <path
         inkscape:transform-center-y="13.589548"
         inkscape:transform-center-x="52.293516"
         sodipodi:nodetypes="cccc"
         inkscape:connector-curvature="0"
         id="path855"
         d="m 161.72312,132.47275 c 0.0313,1.26767 -0.0306,9.548 -0.0306,9.548 l 5.83986,-4.98904 z"
         style="fill:#000000;fill-opacity:1;stroke:#000000;stroke-width:0.10155822px;stroke-linecap:round;stroke-linejoin:round;stroke-opacity:1;paint-order:stroke fill markers" />
    </g>
    <g
       id="g5317"
       transform="matrix(0.69485823,0,0,0.69485823,20.574945,-35.94782)"
       style="">
      <g
         style="opacity:1;fill:#2a3b91;fill-opacity:1;fill-rule:nonzero;stroke:none"
         inkscape:transform-center-y="-0.047247024"
         inkscape:transform-center-x="-0.1889881"
         transform="matrix(0.54182666,0,0,0.54182666,-97.303992,62.686177)"
         id="g895-8-3">
        <ellipse
           style="opacity:1;fill:#2a3b91;fill-opacity:1;fill-rule:nonzero;stroke:none;stroke-width:3.75614715;stroke-linecap:round;stroke-linejoin:round;stroke-miterlimit:4;stroke-dasharray:none;stroke-opacity:0.81632649;paint-order:stroke fill markers"
           id="path871-9-2-0"
           cx="30.140079"
           cy="137.77454"
           rx="7.0379682"
           ry="6.3895903" />
      </g>
      <ellipse
         inkscape:transform-center-y="-0.12768796"
         inkscape:transform-center-x="-0.22355542"
         ry="1.6875783"
         rx="1.8588241"
         cy="137.33833"
         cx="-80.962349"
         id="path871-3-3"
         style="opacity:1;fill:#000000;fill-opacity:1;fill-rule:evenodd;stroke:none;stroke-width:0.99204999;stroke-linecap:round;stroke-linejoin:round;stroke-miterlimit:4;stroke-dasharray:none;stroke-opacity:0.81632649;paint-order:stroke fill markers" />
      <path
         sodipodi:nodetypes="scsss"
         inkscape:connector-curvature="0"
         id="path1118-9"
         d="m -90.514185,115.99987 c -0.491177,6.3525 9.397885,17.89664 9.397885,17.89664 0,0 9.939093,-11.77966 9.191595,-17.9849 -0.557796,-4.63031 -3.513262,-7.79904 -9.064002,-7.94703 -4.895279,-0.13059 -9.137509,3.0175 -9.525478,8.03529 z"
         style="fill:#2a3b91;fill-opacity:1;stroke:none;stroke-width:0.09404644px;stroke-linecap:butt;stroke-linejoin:miter;stroke-opacity:1" />
      <flowRoot
         transform="matrix(0.56698012,0,0,0.54002267,-20.99727,45.053206)"
         style="font-style:normal;font-variant:normal;font-weight:bold;font-stretch:normal;font-size:9.15456676px;line-height:1.25;font-family:sans-serif;-inkscape-font-specification:'sans-serif Bold';letter-spacing:0px;word-spacing:0px;fill:#ffffff;fill-opacity:1;stroke:none"
         id="flowRoot4990"
         xml:space="preserve"><flowRegion
           style="font-style:normal;font-variant:normal;font-weight:bold;font-stretch:normal;font-size:9.15456676px;font-family:sans-serif;-inkscape-font-specification:'sans-serif Bold';fill:#ffffff"
           id="flowRegion4992"><rect
             style="font-style:normal;font-variant:normal;font-weight:bold;font-stretch:normal;font-size:9.15456676px;font-family:sans-serif;-inkscape-font-specification:'sans-serif Bold';fill:#ffffff"
             y="121.96359"
             x="-118.79394"
             height="33.163658"
             width="39.010628"
             id="rect4994" /></flowRegion><flowPara
           id="flowPara4996">30.6.</flowPara><flowPara
           id="flowPara4998">2017</flowPara></flowRoot>    </g>
    <g
       id="g5332"
       transform="matrix(0.69485823,0,0,0.69485823,34.525431,-36.14282)"
       style="">
      <g
         style="fill:#d11422;fill-opacity:1"
         inkscape:transform-center-y="-0.047247024"
         inkscape:transform-center-x="-0.1889881"
         transform="matrix(0.54182666,0,0,0.54182666,-69.020742,62.686177)"
         id="g895-8-3-67">
        <ellipse
           style="opacity:1;fill:#d11422;fill-opacity:1;fill-rule:evenodd;stroke:none;stroke-width:3.75614715;stroke-linecap:round;stroke-linejoin:round;stroke-miterlimit:4;stroke-dasharray:none;stroke-opacity:0.81632649;paint-order:stroke fill markers"
           id="path871-9-2-0-9"
           cx="30.140079"
           cy="137.77454"
           rx="7.0379682"
           ry="6.3895903" />
      </g>
      <ellipse
         inkscape:transform-center-y="-0.12768796"
         inkscape:transform-center-x="-0.22355542"
         ry="1.6875783"
         rx="1.8588241"
         cy="137.33833"
         cx="-52.6791"
         id="path871-3-3-2"
         style="opacity:1;fill:#000000;fill-opacity:1;fill-rule:evenodd;stroke:none;stroke-width:0.99204999;stroke-linecap:round;stroke-linejoin:round;stroke-miterlimit:4;stroke-dasharray:none;stroke-opacity:0.81632649;paint-order:stroke fill markers" />
      <path
         sodipodi:nodetypes="scsss"
         inkscape:connector-curvature="0"
         id="path1118-9-5"
         d="m -61.4243,115.60423 c -0.733271,6.32912 8.707989,18.24228 8.707989,18.24228 0,0 10.381438,-11.39174 9.871315,-17.62099 -0.380669,-4.64822 -3.213042,-7.92745 -8.754089,-8.28717 -4.886736,-0.31722 -9.246019,2.66656 -9.825215,7.66588 z"
         style="fill:#d11422;fill-opacity:1;stroke:none;stroke-width:0.09404644px;stroke-linecap:butt;stroke-linejoin:miter;stroke-opacity:1" />
      <flowRoot
         transform="matrix(0.56698012,0,0,0.54002268,8.2331444,45.680839)"
         style="font-style:normal;font-variant:normal;font-weight:bold;font-stretch:normal;font-size:9.15456676px;line-height:1.25;font-family:sans-serif;-inkscape-font-specification:'sans-serif Bold';letter-spacing:0px;word-spacing:0px;fill:#ffffff;fill-opacity:1;stroke:none"
         id="flowRoot4990-1"
         xml:space="preserve"><flowRegion
           style="font-style:normal;font-variant:normal;font-weight:bold;font-stretch:normal;font-size:9.15456676px;font-family:sans-serif;-inkscape-font-specification:'sans-serif Bold';fill:#ffffff"
           id="flowRegion4992-4"><rect
             style="font-style:normal;font-variant:normal;font-weight:bold;font-stretch:normal;font-size:9.15456676px;font-family:sans-serif;-inkscape-font-specification:'sans-serif Bold';fill:#ffffff"
             y="121.96359"
             x="-118.79394"
             height="33.163658"
             width="39.010628"
             id="rect4994-1" /></flowRegion><flowPara
           id="flowPara4996-2">30.7.</flowPara><flowPara
           id="flowPara4998-9">2017</flowPara></flowRoot>    </g>
    <g
       id="g5383"
       transform="matrix(0.69485823,0,0,0.69485823,48.986232,-35.94782)"
       style="">
      <g
         style="fill:#42a0ff;fill-opacity:1"
         inkscape:transform-center-y="-0.047247024"
         inkscape:transform-center-x="-0.1889881"
         transform="matrix(0.54182666,0,0,0.54182666,-40.737494,62.686177)"
         id="g895-8-3-4">
        <ellipse
           style="opacity:1;fill:#42a0ff;fill-opacity:1;fill-rule:evenodd;stroke:none;stroke-width:3.75614715;stroke-linecap:round;stroke-linejoin:round;stroke-miterlimit:4;stroke-dasharray:none;stroke-opacity:0.81632649;paint-order:stroke fill markers"
           id="path871-9-2-0-0"
           cx="30.140079"
           cy="137.77454"
           rx="7.0379682"
           ry="6.3895903" />
      </g>
      <ellipse
         inkscape:transform-center-y="-0.12768796"
         inkscape:transform-center-x="-0.22355542"
         ry="1.6875783"
         rx="1.8588241"
         cy="137.33833"
         cx="-24.395851"
         id="path871-3-3-3"
         style="opacity:1;fill:#000000;fill-opacity:1;fill-rule:evenodd;stroke:none;stroke-width:0.99204999;stroke-linecap:round;stroke-linejoin:round;stroke-miterlimit:4;stroke-dasharray:none;stroke-opacity:0.81632649;paint-order:stroke fill markers" />
      <path
         sodipodi:nodetypes="scsss"
         inkscape:connector-curvature="0"
         id="path1118-9-5-2"
         d="m -33.096333,115.73017 c -0.733271,6.32912 8.707989,18.24228 8.707989,18.24228 0,0 10.381437,-11.39174 9.871314,-17.62099 -0.380669,-4.64822 -3.213042,-7.92745 -8.754088,-8.28717 -4.886737,-0.31722 -9.246019,2.66656 -9.825215,7.66588 z"
         style="fill:#42a0ff;fill-opacity:1;stroke:none;stroke-width:0.09404644px;stroke-linecap:butt;stroke-linejoin:miter;stroke-opacity:1" />
      <flowRoot
         transform="matrix(0.56698012,0,0,0.54002268,36.483533,45.306661)"
         style="font-style:normal;font-variant:normal;font-weight:bold;font-stretch:normal;font-size:9.15456676px;line-height:1.25;font-family:sans-serif;-inkscape-font-specification:'sans-serif Bold';letter-spacing:0px;word-spacing:0px;fill:#ffffff;fill-opacity:1;stroke:none"
         id="flowRoot4990-1-9"
         xml:space="preserve"><flowRegion
           style="font-style:normal;font-variant:normal;font-weight:bold;font-stretch:normal;font-size:9.15456676px;font-family:sans-serif;-inkscape-font-specification:'sans-serif Bold';fill:#ffffff"
           id="flowRegion4992-4-5"><rect
             style="font-style:normal;font-variant:normal;font-weight:bold;font-stretch:normal;font-size:9.15456676px;font-family:sans-serif;-inkscape-font-specification:'sans-serif Bold';fill:#ffffff"
             y="121.96359"
             x="-118.79394"
             height="33.163658"
             width="39.010628"
             id="rect4994-1-3" /></flowRegion><flowPara
           id="flowPara4996-2-8"> 5.9.</flowPara><flowPara
           id="flowPara4998-9-9">2017</flowPara></flowRoot>    </g>
    <g
       id="g5397"
       transform="matrix(0.69485823,0,0,0.69485823,63.538082,-35.763972)"
       style="">
      <g
         style="fill:#2a3b91;fill-opacity:1"
         id="g895-8-3-6"
         transform="matrix(0.54182666,0,0,0.54182666,-12.454247,62.686176)"
         inkscape:transform-center-x="-0.1889881"
         inkscape:transform-center-y="-0.047247024">
        <ellipse
           ry="6.3895903"
           rx="7.0379682"
           cy="137.77454"
           cx="30.140079"
           id="path871-9-2-0-3"
           style="opacity:1;fill:#2a3b91;fill-opacity:1;fill-rule:evenodd;stroke:none;stroke-width:3.75614715;stroke-linecap:round;stroke-linejoin:round;stroke-miterlimit:4;stroke-dasharray:none;stroke-opacity:0.81632649;paint-order:stroke fill markers" />
      </g>
      <ellipse
         style="opacity:1;fill:#000000;fill-opacity:1;fill-rule:evenodd;stroke:none;stroke-width:0.99204999;stroke-linecap:round;stroke-linejoin:round;stroke-miterlimit:4;stroke-dasharray:none;stroke-opacity:0.81632649;paint-order:stroke fill markers"
         id="path871-3-3-5"
         cx="11.302982"
         cy="162.53722"
         rx="1.8588241"
         ry="1.6875783"
         inkscape:transform-center-x="-0.22355542"
         inkscape:transform-center-y="-0.12768796"
         transform="translate(-7.4155866,-25.198876)" />
      <path
         sodipodi:nodetypes="scsss"
         inkscape:connector-curvature="0"
         id="path1118-9-5-7"
         d="m -4.8993982,115.66336 c -0.733271,6.32912 8.707989,18.24228 8.707989,18.24228 0,0 10.3814382,-11.39174 9.8713152,-17.62099 -0.380669,-4.64822 -3.213042,-7.92745 -8.7540892,-8.28717 -4.88673606,-0.31722 -9.246019,2.66656 -9.825215,7.66588 z"
         style="fill:#2a3b91;fill-opacity:1;stroke:none;stroke-width:0.09404644px;stroke-linecap:butt;stroke-linejoin:miter;stroke-opacity:1" />
      <flowRoot
         transform="matrix(0.56698012,0,0,0.54002268,63.050124,45.867928)"
         style="font-style:normal;font-variant:normal;font-weight:bold;font-stretch:normal;font-size:8.92563915px;line-height:1.25;font-family:sans-serif;-inkscape-font-specification:'sans-serif Bold';letter-spacing:0px;word-spacing:0px;fill:#ffffff;fill-opacity:1;stroke:none"
         id="flowRoot4990-1-9-2"
         xml:space="preserve"><flowRegion
           style="font-style:normal;font-variant:normal;font-weight:bold;font-stretch:normal;font-size:8.92563915px;font-family:sans-serif;-inkscape-font-specification:'sans-serif Bold';fill:#ffffff"
           id="flowRegion4992-4-5-7"><rect
             style="font-style:normal;font-variant:normal;font-weight:bold;font-stretch:normal;font-size:8.92563915px;font-family:sans-serif;-inkscape-font-specification:'sans-serif Bold';fill:#ffffff"
             y="121.96359"
             x="-118.79394"
             height="33.163658"
             width="39.010628"
             id="rect4994-1-3-8" /></flowRegion><flowPara
           id="flowPara4996-2-8-4">30.10.</flowPara><flowPara
           id="flowPara4998-9-9-9"> 2017</flowPara></flowRoot>    </g>
    <g
       id="g5306"
       transform="matrix(0.69485823,0,0,0.69485823,77.950646,-35.993782)"
       style="">
      <g
         inkscape:transform-center-y="-0.047247024"
         inkscape:transform-center-x="-0.1889881"
         transform="matrix(0.54182666,0,0,0.54182666,15.829007,62.686177)"
         id="g895-8-3-6-1-1-8"
         style="">
        <ellipse
           style="opacity:1;fill:#d11422;fill-opacity:1;fill-rule:evenodd;stroke:none;stroke-width:3.75614715;stroke-linecap:round;stroke-linejoin:round;stroke-miterlimit:4;stroke-dasharray:none;stroke-opacity:0.81632649;paint-order:stroke fill markers"
           id="path871-9-2-0-3-31-5-1"
           cx="30.140079"
           cy="137.77454"
           rx="7.0379682"
           ry="6.3895903" />
      </g>
      <ellipse
         inkscape:transform-center-y="-0.12768796"
         inkscape:transform-center-x="-0.22355542"
         ry="1.6875783"
         rx="1.8588241"
         cy="137.33833"
         cx="32.17065"
         id="path871-3-3-5-4-2-2"
         style="opacity:1;fill:#000000;fill-opacity:1;fill-rule:evenodd;stroke:none;stroke-width:0.99204999;stroke-linecap:round;stroke-linejoin:round;stroke-miterlimit:4;stroke-dasharray:none;stroke-opacity:0.81632649;paint-order:stroke fill markers" />
      <path
         sodipodi:nodetypes="scsss"
         inkscape:connector-curvature="0"
         id="path1118-9-5-8"
         d="m 23.497989,115.65188 c -0.733271,6.32912 8.707989,18.24228 8.707989,18.24228 0,0 10.381438,-11.39174 9.871315,-17.62099 -0.380669,-4.64822 -3.213042,-7.92745 -8.754089,-8.28717 -4.886736,-0.31722 -9.246019,2.66656 -9.825215,7.66588 z"
         style="fill:#d11422;fill-opacity:1;stroke:none;stroke-width:0.09404644px;stroke-linecap:butt;stroke-linejoin:miter;stroke-opacity:1" />
      <flowRoot
         transform="matrix(0.56698012,0,0,0.54002268,92.984311,45.680839)"
         style="font-style:normal;font-variant:normal;font-weight:bold;font-stretch:normal;font-size:9.15456676px;line-height:1.25;font-family:sans-serif;-inkscape-font-specification:'sans-serif Bold';letter-spacing:0px;word-spacing:0px;fill:#ffffff;fill-opacity:1;stroke:none"
         id="flowRoot4990-1-9-2-3"
         xml:space="preserve"><flowRegion
           style="font-style:normal;font-variant:normal;font-weight:bold;font-stretch:normal;font-size:9.15456676px;font-family:sans-serif;-inkscape-font-specification:'sans-serif Bold';fill:#ffffff"
           id="flowRegion4992-4-5-7-4"><rect
             style="font-style:normal;font-variant:normal;font-weight:bold;font-stretch:normal;font-size:9.15456676px;font-family:sans-serif;-inkscape-font-specification:'sans-serif Bold';fill:#ffffff"
             y="121.96359"
             x="-118.79394"
             height="33.163658"
             width="39.010628"
             id="rect4994-1-3-8-2" /></flowRegion><flowPara
           id="flowPara4996-2-8-4-6">31.1.</flowPara><flowPara
           id="flowPara4998-9-9-9-3">2018</flowPara></flowRoot>    </g>
    <g
       id="g960-4-4"
       transform="matrix(0.69485823,0,0,0.69485823,126.57616,-53.392467)"
       style="fill:#42a0ff;fill-opacity:1">
      <g
         inkscape:transform-center-y="-0.047247024"
         inkscape:transform-center-x="-0.1889881"
         transform="matrix(0.54182666,0,0,0.54182666,-5.0386605,87.885053)"
         id="g895-8-3-6-4"
         style="fill:#42a0ff;fill-opacity:1">
        <ellipse
           style="opacity:1;fill:#42a0ff;fill-opacity:1;fill-rule:evenodd;stroke:none;stroke-width:3.75614715;stroke-linecap:round;stroke-linejoin:round;stroke-miterlimit:4;stroke-dasharray:none;stroke-opacity:0.81632649;paint-order:stroke fill markers"
           id="path871-9-2-0-3-3"
           cx="30.140079"
           cy="137.77454"
           rx="7.0379682"
           ry="6.3895903" />
      </g>
      <ellipse
         inkscape:transform-center-y="-0.12768796"
         inkscape:transform-center-x="-0.22355542"
         ry="1.6875783"
         rx="1.8588241"
         cy="162.53722"
         cx="11.302982"
         id="path871-3-3-5-6"
         style="opacity:1;fill:#000000;fill-opacity:1;fill-rule:evenodd;stroke:none;stroke-width:0.99204999;stroke-linecap:round;stroke-linejoin:round;stroke-miterlimit:4;stroke-dasharray:none;stroke-opacity:0.81632649;paint-order:stroke fill markers" />
    </g>
    <path
       style="fill:#42a0ff;fill-opacity:1;stroke:none;stroke-width:0.06534895px;stroke-linecap:butt;stroke-linejoin:miter;stroke-opacity:1"
       d="m 128.42314,44.429607 c -0.50952,4.397841 6.05082,12.675798 6.05082,12.675798 0,0 7.21363,-7.915644 6.85916,-12.24409 -0.26451,-3.229853 -2.23261,-5.508453 -6.08284,-5.758408 -3.3956,-0.220423 -6.42468,1.852881 -6.82714,5.3267 z"
       id="path1118-9-5-71"
       inkscape:connector-curvature="0"
       sodipodi:nodetypes="scsss" />
    <flowRoot
       xml:space="preserve"
       id="flowRoot4990-1-9-2-3-8"
       style="font-style:normal;font-variant:normal;font-weight:bold;font-stretch:normal;font-size:9.15456676px;line-height:1.25;font-family:sans-serif;-inkscape-font-specification:'sans-serif Bold';letter-spacing:0px;word-spacing:0px;fill:#ffffff;fill-opacity:1;stroke:none"
       transform="matrix(0.3939708,0,0,0.3752392,176.66417,-4.2711146)"><flowRegion
         id="flowRegion4992-4-5-7-4-3"
         style="font-style:normal;font-variant:normal;font-weight:bold;font-stretch:normal;font-size:9.15456676px;font-family:sans-serif;-inkscape-font-specification:'sans-serif Bold';fill:#ffffff"><rect
           id="rect4994-1-3-8-2-8"
           width="39.010628"
           height="33.163658"
           x="-118.79394"
           y="121.96359"
           style="font-style:normal;font-variant:normal;font-weight:bold;font-stretch:normal;font-size:9.15456676px;font-family:sans-serif;-inkscape-font-specification:'sans-serif Bold';fill:#ffffff" /></flowRegion><flowPara
         id="flowPara4996-2-8-4-6-2">31.5.</flowPara><flowPara
         id="flowPara4998-9-9-9-3-3">2018</flowPara></flowRoot>    <g
       id="g5273"
       transform="matrix(0.69485823,0,0,0.69485823,107.00792,-35.88282)"
       style="">
      <g
         transform="translate(77.434161,-25.198876)"
         id="g960-4-0-6"
         style="">
        <g
           style="fill:#2a3b91;fill-opacity:1"
           id="g895-8-3-6-1-1"
           transform="matrix(0.54182666,0,0,0.54182666,-5.0386605,87.885053)"
           inkscape:transform-center-x="-0.1889881"
           inkscape:transform-center-y="-0.047247024">
          <ellipse
             ry="6.3895903"
             rx="7.0379682"
             cy="137.77454"
             cx="30.140079"
             id="path871-9-2-0-3-31-5"
             style="opacity:1;fill:#2a3b91;fill-opacity:1;fill-rule:evenodd;stroke:none;stroke-width:3.75614715;stroke-linecap:round;stroke-linejoin:round;stroke-miterlimit:4;stroke-dasharray:none;stroke-opacity:0.81632649;paint-order:stroke fill markers" />
        </g>
        <ellipse
           style="opacity:1;fill:#000000;fill-opacity:1;fill-rule:evenodd;stroke:none;stroke-width:0.99204999;stroke-linecap:round;stroke-linejoin:round;stroke-miterlimit:4;stroke-dasharray:none;stroke-opacity:0.81632649;paint-order:stroke fill markers"
           id="path871-3-3-5-4-2"
           cx="11.302982"
           cy="162.53722"
           rx="1.8588241"
           ry="1.6875783"
           inkscape:transform-center-x="-0.22355542"
           inkscape:transform-center-y="-0.12768796" />
      </g>
      <path
         sodipodi:nodetypes="scsss"
         inkscape:connector-curvature="0"
         id="path1118-9-5-78"
         d="m 79.958677,115.58507 c -0.733271,6.32912 8.707989,18.24228 8.707989,18.24228 0,0 10.381438,-11.39174 9.871315,-17.62099 -0.380669,-4.64822 -3.213042,-7.92745 -8.754089,-8.28717 -4.886736,-0.31722 -9.246019,2.66656 -9.825215,7.66588 z"
         style="fill:#2a3b91;fill-opacity:1;stroke:none;stroke-width:0.09404644px;stroke-linecap:butt;stroke-linejoin:miter;stroke-opacity:1" />
      <flowRoot
         transform="matrix(0.56698012,0,0,0.54002268,149.11091,45.306661)"
         style="font-style:normal;font-variant:normal;font-weight:bold;font-stretch:normal;font-size:9.15456676px;line-height:1.25;font-family:sans-serif;-inkscape-font-specification:'sans-serif Bold';letter-spacing:0px;word-spacing:0px;fill:#ffffff;fill-opacity:1;stroke:none"
         id="flowRoot4990-1-9-2-3-8-3"
         xml:space="preserve"><flowRegion
           style="font-style:normal;font-variant:normal;font-weight:bold;font-stretch:normal;font-size:9.15456676px;font-family:sans-serif;-inkscape-font-specification:'sans-serif Bold';fill:#ffffff"
           id="flowRegion4992-4-5-7-4-3-7"><rect
             style="font-style:normal;font-variant:normal;font-weight:bold;font-stretch:normal;font-size:9.15456676px;font-family:sans-serif;-inkscape-font-specification:'sans-serif Bold';fill:#ffffff"
             y="121.96359"
             x="-118.79394"
             height="33.163658"
             width="39.010628"
             id="rect4994-1-3-8-2-8-3" /></flowRegion><flowPara
           id="flowPara4996-2-8-4-6-2-7">30.6.</flowPara><flowPara
           id="flowPara4998-9-9-9-3-3-4">2018</flowPara></flowRoot>    </g>
    <g
       id="g895-8-3-9"
       transform="matrix(0.37649271,0,0,0.37649271,225.54984,7.610186)"
       inkscape:transform-center-x="-0.1889881"
       inkscape:transform-center-y="-0.047247024"
       style="fill:#42a0ff;fill-opacity:1">
      <ellipse
         ry="6.3895903"
         rx="7.0379682"
         cy="137.77454"
         cx="30.140079"
         id="path871-9-2-0-5"
         style="opacity:1;fill:#42a0ff;fill-opacity:1;fill-rule:evenodd;stroke:none;stroke-width:3.75614715;stroke-linecap:round;stroke-linejoin:round;stroke-miterlimit:4;stroke-dasharray:none;stroke-opacity:0.81632649;paint-order:stroke fill markers" />
    </g>
    <ellipse
       style="opacity:1;fill:#000000;fill-opacity:1;fill-rule:evenodd;stroke:none;stroke-width:0.68933409;stroke-linecap:round;stroke-linejoin:round;stroke-miterlimit:4;stroke-dasharray:none;stroke-opacity:0.81632649;paint-order:stroke fill markers"
       id="path871-3-3-8"
       cx="236.90497"
       cy="59.482853"
       rx="1.2916193"
       ry="1.1726277"
       inkscape:transform-center-x="-0.22355542"
       inkscape:transform-center-y="-0.12768796" />
    <path
       style="fill:#42a0ff;fill-opacity:1;stroke:none;stroke-width:0.06534895px;stroke-linecap:butt;stroke-linejoin:miter;stroke-opacity:1"
       d="m 230.85732,44.474363 c -0.50951,4.397841 6.05082,12.675798 6.05082,12.675798 0,0 7.21363,-7.915644 6.85916,-12.24409 -0.26451,-3.229854 -2.2326,-5.508454 -6.08284,-5.758408 -3.39559,-0.220423 -6.42467,1.852881 -6.82714,5.3267 z"
       id="path1118-9-5-5"
       inkscape:connector-curvature="0"
       sodipodi:nodetypes="scsss" />
    <flowRoot
       xml:space="preserve"
       id="flowRoot4990-1-9-2-3-8-3-6"
       style="font-style:normal;font-variant:normal;font-weight:bold;font-stretch:normal;font-size:9.15456676px;line-height:1.25;font-family:sans-serif;-inkscape-font-specification:'sans-serif Bold';letter-spacing:0px;word-spacing:0px;fill:#ffffff;fill-opacity:1;stroke:none"
       transform="matrix(0.3939708,0,0,0.3752392,279.20051,-4.4661144)"><flowRegion
         id="flowRegion4992-4-5-7-4-3-7-0"
         style="font-style:normal;font-variant:normal;font-weight:bold;font-stretch:normal;font-size:9.15456676px;font-family:sans-serif;-inkscape-font-specification:'sans-serif Bold';fill:#ffffff"><rect
           id="rect4994-1-3-8-2-8-3-5"
           width="39.010628"
           height="33.163658"
           x="-118.79394"
           y="121.96359"
           style="font-style:normal;font-variant:normal;font-weight:bold;font-stretch:normal;font-size:9.15456676px;font-family:sans-serif;-inkscape-font-specification:'sans-serif Bold';fill:#ffffff" /></flowRegion><flowPara
         id="flowPara4996-2-8-4-6-2-7-0">15.9.</flowPara><flowPara
         id="flowPara4998-9-9-9-3-3-4-3">2019</flowPara></flowRoot>    <g
       id="g5261"
       transform="matrix(0.69485823,0,0,0.69485823,121.54202,-35.763972)"
       style="">
      <g
         transform="translate(105.71741,-25.198876)"
         id="g960-4-0"
         style="">
        <g
           style="fill:#d11422;fill-opacity:1"
           id="g895-8-3-6-1"
           transform="matrix(0.54182666,0,0,0.54182666,-5.0386605,87.885053)"
           inkscape:transform-center-x="-0.1889881"
           inkscape:transform-center-y="-0.047247024">
          <ellipse
             ry="6.3895903"
             rx="7.0379682"
             cy="137.77454"
             cx="30.140079"
             id="path871-9-2-0-3-31"
             style="opacity:1;fill:#d11422;fill-opacity:1;fill-rule:evenodd;stroke:none;stroke-width:3.75614715;stroke-linecap:round;stroke-linejoin:round;stroke-miterlimit:4;stroke-dasharray:none;stroke-opacity:0.81632649;paint-order:stroke fill markers" />
        </g>
        <ellipse
           style="opacity:1;fill:#000000;fill-opacity:1;fill-rule:evenodd;stroke:none;stroke-width:0.99204999;stroke-linecap:round;stroke-linejoin:round;stroke-miterlimit:4;stroke-dasharray:none;stroke-opacity:0.81632649;paint-order:stroke fill markers"
           id="path871-3-3-5-4"
           cx="11.302982"
           cy="162.53722"
           rx="1.8588241"
           ry="1.6875783"
           inkscape:transform-center-x="-0.22355542"
           inkscape:transform-center-y="-0.12768796" />
      </g>
      <path
         sodipodi:nodetypes="scsss"
         inkscape:connector-curvature="0"
         id="path1118-9-5-4"
         d="m 108.18115,115.62086 c -0.73327,6.32912 8.70799,18.24228 8.70799,18.24228 0,0 10.38144,-11.39174 9.87132,-17.62099 -0.38067,-4.64822 -3.21304,-7.92745 -8.75409,-8.28717 -4.88674,-0.31722 -9.24602,2.66656 -9.82522,7.66588 z"
         style="fill:#d11422;fill-opacity:1;stroke:none;stroke-width:0.09404644px;stroke-linecap:butt;stroke-linejoin:miter;stroke-opacity:1" />
      <flowRoot
         transform="matrix(0.56698012,0,0,0.54002268,177.92256,45.680839)"
         style="font-style:normal;font-variant:normal;font-weight:bold;font-stretch:normal;font-size:9.15456676px;line-height:1.25;font-family:sans-serif;-inkscape-font-specification:'sans-serif Bold';letter-spacing:0px;word-spacing:0px;fill:#ffffff;fill-opacity:1;stroke:none"
         id="flowRoot4990-1-9-2-3-8-3-6-8"
         xml:space="preserve"><flowRegion
           style="font-style:normal;font-variant:normal;font-weight:bold;font-stretch:normal;font-size:9.15456676px;font-family:sans-serif;-inkscape-font-specification:'sans-serif Bold';fill:#ffffff"
           id="flowRegion4992-4-5-7-4-3-7-0-3"><rect
             style="font-style:normal;font-variant:normal;font-weight:bold;font-stretch:normal;font-size:9.15456676px;font-family:sans-serif;-inkscape-font-specification:'sans-serif Bold';fill:#ffffff"
             y="121.96359"
             x="-118.79394"
             height="33.163658"
             width="39.010628"
             id="rect4994-1-3-8-2-8-3-5-7" /></flowRegion><flowPara
           id="flowPara4996-2-8-4-6-2-7-0-0">30.8.</flowPara><flowPara
           id="flowPara4998-9-9-9-3-3-4-3-8">2019</flowPara></flowRoot>    </g>
    <text
       xml:space="preserve"
       style="font-style:normal;font-variant:normal;font-weight:bold;font-stretch:normal;font-size:3.18669701px;line-height:1.25;font-family:sans-serif;-inkscape-font-specification:'sans-serif Bold';letter-spacing:0px;word-spacing:0px;fill:#ffffff;fill-opacity:1;stroke:none;stroke-width:0.1838479;opacity:0.805;"
       x="-48.855"
       y="60.827236"
       id="text5236"><tspan
         sodipodi:role="line"
         id="tspan5234"
         x="-48.855"
         y="63.646717"
         style="font-style:normal;font-variant:normal;font-weight:bold;font-stretch:normal;font-size:3.18669701px;font-family:sans-serif;-inkscape-font-specification:'sans-serif Bold';fill:#ffffff;stroke-width:0.1838479;" /><tspan
         sodipodi:role="line"
         x="-48.855"
         y="67.630081"
         style="font-style:normal;font-variant:normal;font-weight:bold;font-stretch:normal;font-size:3.18669701px;font-family:sans-serif;-inkscape-font-specification:'sans-serif Bold';fill:#ffffff;stroke-width:0.1838479;"
         id="tspan5319">Dokumentace </tspan><tspan
         sodipodi:role="line"
         x="-48.855"
         y="71.613457"
         style="font-style:normal;font-variant:normal;font-weight:bold;font-stretch:normal;font-size:3.18669701px;font-family:sans-serif;-inkscape-font-specification:'sans-serif Bold';fill:#ffffff;stroke-width:0.1838479;"
         id="tspan5238">  pro územní </tspan><tspan
         sodipodi:role="line"
         x="-48.855"
         y="75.596825"
         style="font-style:normal;font-variant:normal;font-weight:bold;font-stretch:normal;font-size:3.18669701px;font-family:sans-serif;-inkscape-font-specification:'sans-serif Bold';fill:#ffffff;stroke-width:0.1838479;"
         id="tspan5321">  rozhodnutí</tspan></text>
    <text
       xml:space="preserve"
       style="font-style:normal;font-variant:normal;font-weight:bold;font-stretch:normal;font-size:3.18669701px;line-height:1.25;font-family:sans-serif;-inkscape-font-specification:'sans-serif Bold';letter-spacing:0px;word-spacing:0px;fill:#ffffff;fill-opacity:1;stroke:none;stroke-width:0.1838479;opacity:0.805;"
       x="-17.457441"
       y="67.681747"
       id="text5236-4"><tspan
         sodipodi:role="line"
         x="-17.457441"
         y="67.681747"
         style="font-style:normal;font-variant:normal;font-weight:bold;font-stretch:normal;font-size:3.18669701px;font-family:sans-serif;-inkscape-font-specification:'sans-serif Bold';fill:#ffffff;stroke-width:0.1838479;"
         id="tspan5321-8"> Jednání s úřady</tspan><tspan
         sodipodi:role="line"
         x="-17.457441"
         y="71.665115"
         style="font-style:normal;font-variant:normal;font-weight:bold;font-stretch:normal;font-size:3.18669701px;font-family:sans-serif;-inkscape-font-specification:'sans-serif Bold';fill:#ffffff;stroke-width:0.1838479;"
         id="tspan5372">a městem Kuřim </tspan><tspan
         sodipodi:role="line"
         x="-17.457441"
         y="75.648491"
         style="font-style:normal;font-variant:normal;font-weight:bold;font-stretch:normal;font-size:3.18669701px;font-family:sans-serif;-inkscape-font-specification:'sans-serif Bold';fill:#ffffff;stroke-width:0.1838479;"
         id="tspan5370" /></text>
    <text
       xml:space="preserve"
       style="font-style:normal;font-variant:normal;font-weight:bold;font-stretch:normal;font-size:3.18669701px;line-height:1.25;font-family:sans-serif;-inkscape-font-specification:'sans-serif Bold';letter-spacing:0px;word-spacing:0px;fill:#ffffff;fill-opacity:1;stroke:none;stroke-width:0.1838479;opacity:0.805;"
       x="17.960077"
       y="67.505112"
       id="text5236-4-1"><tspan
         sodipodi:role="line"
         x="17.960077"
         y="67.505112"
         style="font-style:normal;font-variant:normal;font-weight:bold;font-stretch:normal;font-size:3.18669701px;font-family:sans-serif;-inkscape-font-specification:'sans-serif Bold';fill:#ffffff;stroke-width:0.1838479;"
         id="tspan5321-8-4">Kladný posudek</tspan><tspan
         sodipodi:role="line"
         x="17.960077"
         y="71.48848"
         style="font-style:normal;font-variant:normal;font-weight:bold;font-stretch:normal;font-size:3.18669701px;font-family:sans-serif;-inkscape-font-specification:'sans-serif Bold';fill:#ffffff;stroke-width:0.1838479;"
         id="tspan5447">          EIA</tspan><tspan
         sodipodi:role="line"
         x="17.960077"
         y="75.471855"
         style="font-style:normal;font-variant:normal;font-weight:bold;font-stretch:normal;font-size:3.18669701px;font-family:sans-serif;-inkscape-font-specification:'sans-serif Bold';fill:#ffffff;stroke-width:0.1838479;"
         id="tspan5372-3" /><tspan
         sodipodi:role="line"
         x="17.960077"
         y="79.455223"
         style="font-style:normal;font-variant:normal;font-weight:bold;font-stretch:normal;font-size:3.18669701px;font-family:sans-serif;-inkscape-font-specification:'sans-serif Bold';fill:#ffffff;stroke-width:0.1838479;"
         id="tspan5370-1" /></text>
    <text
       xml:space="preserve"
       style="font-style:normal;font-variant:normal;font-weight:bold;font-stretch:normal;font-size:3.18669701px;line-height:1.25;font-family:sans-serif;-inkscape-font-specification:'sans-serif Bold';letter-spacing:0px;word-spacing:0px;fill:#ffffff;fill-opacity:1;stroke:none;stroke-width:0.1838479;opacity:0.805;"
       x="52.670105"
       y="67.505112"
       id="text5236-4-1-6"><tspan
         sodipodi:role="line"
         x="52.670105"
         y="67.505112"
         style="font-style:normal;font-variant:normal;font-weight:bold;font-stretch:normal;font-size:3.18669701px;font-family:sans-serif;-inkscape-font-specification:'sans-serif Bold';fill:#ffffff;stroke-width:0.1838479;"
         id="tspan5321-8-4-8">Źádost o územní</tspan><tspan
         sodipodi:role="line"
         x="52.670105"
         y="71.48848"
         style="font-style:normal;font-variant:normal;font-weight:bold;font-stretch:normal;font-size:3.18669701px;font-family:sans-serif;-inkscape-font-specification:'sans-serif Bold';fill:#ffffff;stroke-width:0.1838479;"
         id="tspan5370-1-9">    rozhodnutí</tspan></text>
    <text
       xml:space="preserve"
       style="font-style:normal;font-variant:normal;font-weight:bold;font-stretch:normal;font-size:3.18669701px;line-height:1.25;font-family:sans-serif;-inkscape-font-specification:'sans-serif Bold';letter-spacing:0px;word-spacing:0px;fill:#ffffff;fill-opacity:1;stroke:none;stroke-width:0.1838479;opacity:0.805;"
       x="89.368401"
       y="67.375114"
       id="text5236-4-1-6-2"><tspan
         sodipodi:role="line"
         x="89.368401"
         y="67.375114"
         style="font-style:normal;font-variant:normal;font-weight:bold;font-stretch:normal;font-size:3.18669701px;font-family:sans-serif;-inkscape-font-specification:'sans-serif Bold';fill:#ffffff;stroke-width:0.1838479;"
         id="tspan5370-1-9-2">    Územní </tspan><tspan
         sodipodi:role="line"
         x="89.368401"
         y="71.358482"
         style="font-style:normal;font-variant:normal;font-weight:bold;font-stretch:normal;font-size:3.18669701px;font-family:sans-serif;-inkscape-font-specification:'sans-serif Bold';fill:#ffffff;stroke-width:0.1838479;"
         id="tspan5480">  rozhodnutí</tspan><tspan
         sodipodi:role="line"
         x="89.368401"
         y="75.341858"
         style="font-style:normal;font-variant:normal;font-weight:bold;font-stretch:normal;font-size:3.18669701px;font-family:sans-serif;-inkscape-font-specification:'sans-serif Bold';fill:#ffffff;stroke-width:0.1838479;"
         id="tspan5478">v právní moci</tspan></text>
    <text
       xml:space="preserve"
       style="font-style:normal;font-variant:normal;font-weight:bold;font-stretch:normal;font-size:3.18669701px;line-height:1.25;font-family:sans-serif;-inkscape-font-specification:'sans-serif Bold';letter-spacing:0px;word-spacing:0px;fill:#ffffff;fill-opacity:1;stroke:none;stroke-width:0.1838479;opacity:0.805;"
       x="123.51783"
       y="67.487617"
       id="text5236-4-1-6-2-8"><tspan
         sodipodi:role="line"
         x="123.51783"
         y="67.487617"
         style="font-style:normal;font-variant:normal;font-weight:bold;font-stretch:normal;font-size:3.18669701px;font-family:sans-serif;-inkscape-font-specification:'sans-serif Bold';fill:#ffffff;stroke-width:0.1838479;"
         id="tspan5370-1-9-2-1">    Vydání </tspan><tspan
         sodipodi:role="line"
         x="123.51783"
         y="71.470985"
         style="font-style:normal;font-variant:normal;font-weight:bold;font-stretch:normal;font-size:3.18669701px;font-family:sans-serif;-inkscape-font-specification:'sans-serif Bold';fill:#ffffff;stroke-width:0.1838479;"
         id="tspan5480-7">  stavebního</tspan><tspan
         sodipodi:role="line"
         x="123.51783"
         y="75.454361"
         style="font-style:normal;font-variant:normal;font-weight:bold;font-stretch:normal;font-size:3.18669701px;font-family:sans-serif;-inkscape-font-specification:'sans-serif Bold';fill:#ffffff;stroke-width:0.1838479;"
         id="tspan5478-9">    povolení</tspan></text>
    <text
       xml:space="preserve"
       style="font-style:normal;font-variant:normal;font-weight:bold;font-stretch:normal;font-size:3.18669701px;line-height:1.25;font-family:sans-serif;-inkscape-font-specification:'sans-serif Bold';letter-spacing:0px;word-spacing:0px;fill:#ffffff;fill-opacity:1;stroke:none;stroke-width:0.1838479;opacity:0.805;"
       x="194.83672"
       y="67.284569"
       id="text5236-4-1-6-2-8-1"><tspan
         sodipodi:role="line"
         x="194.83672"
         y="67.284569"
         style="font-style:normal;font-variant:normal;font-weight:bold;font-stretch:normal;font-size:3.18669701px;font-family:sans-serif;-inkscape-font-specification:'sans-serif Bold';fill:#ffffff;stroke-width:0.1838479;"
         id="tspan5540">Kolaudace</tspan><tspan
         sodipodi:role="line"
         x="194.83672"
         y="71.267937"
         style="font-style:normal;font-variant:normal;font-weight:bold;font-stretch:normal;font-size:3.18669701px;font-family:sans-serif;-inkscape-font-specification:'sans-serif Bold';fill:#ffffff;stroke-width:0.1838479;"
         id="tspan5478-9-2" /></text>
    <text
       xml:space="preserve"
       style="font-style:normal;font-variant:normal;font-weight:bold;font-stretch:normal;font-size:3.18669701px;line-height:1.25;font-family:sans-serif;-inkscape-font-specification:'sans-serif Bold';letter-spacing:0px;word-spacing:0px;fill:#ffffff;fill-opacity:1;stroke:none;stroke-width:0.1838479;opacity:0.805;"
       x="160.96732"
       y="67.573799"
       id="text5236-4-1-6-2-8-1-5"><tspan
         sodipodi:role="line"
         x="160.96732"
         y="67.573799"
         style="font-style:normal;font-variant:normal;font-weight:bold;font-stretch:normal;font-size:3.18669701px;font-family:sans-serif;-inkscape-font-specification:'sans-serif Bold';fill:#ffffff;stroke-width:0.1838479;"
         id="tspan5370-1-9-2-1-0-7">Zahájení</tspan><tspan
         sodipodi:role="line"
         x="160.96732"
         y="71.557167"
         style="font-style:normal;font-variant:normal;font-weight:bold;font-stretch:normal;font-size:3.18669701px;font-family:sans-serif;-inkscape-font-specification:'sans-serif Bold';fill:#ffffff;stroke-width:0.1838479;"
         id="tspan5540-5">výstavby</tspan><tspan
         sodipodi:role="line"
         x="160.96732"
         y="75.540543"
         style="font-style:normal;font-variant:normal;font-weight:bold;font-stretch:normal;font-size:3.18669701px;font-family:sans-serif;-inkscape-font-specification:'sans-serif Bold';fill:#ffffff;stroke-width:0.1838479;"
         id="tspan5478-9-2-3" /></text>
    <text
       xml:space="preserve"
       style="font-style:normal;font-variant:normal;font-weight:bold;font-stretch:normal;font-size:3.18669701px;line-height:1.25;font-family:sans-serif;-inkscape-font-specification:'sans-serif Bold';letter-spacing:0px;word-spacing:0px;fill:#ffffff;fill-opacity:0.79591835;stroke:none;stroke-width:0.1838479;"
       x="229.87199"
       y="67.483002"
       id="text5236-4-1-6-2-8-1-3"><tspan
         sodipodi:role="line"
         x="229.87199"
         y="67.483002"
         style="font-style:normal;font-variant:normal;font-weight:bold;font-stretch:normal;font-size:3.18669701px;font-family:sans-serif;-inkscape-font-specification:'sans-serif Bold';fill:#ffffff;stroke-width:0.1838479;fill-opacity:0.79591835;"
         id="tspan5540-2">Zahájení</tspan><tspan
         sodipodi:role="line"
         x="229.87199"
         y="71.46637"
         style="font-style:normal;font-variant:normal;font-weight:bold;font-stretch:normal;font-size:3.18669701px;font-family:sans-serif;-inkscape-font-specification:'sans-serif Bold';fill:#ffffff;stroke-width:0.1838479;fill-opacity:0.79591835;"
         id="tspan5591"> provozu</tspan><tspan
         sodipodi:role="line"
         x="229.87199"
         y="75.449745"
         style="font-style:normal;font-variant:normal;font-weight:bold;font-stretch:normal;font-size:3.18669701px;font-family:sans-serif;-inkscape-font-specification:'sans-serif Bold';fill:#ffffff;stroke-width:0.1838479;fill-opacity:0.79591835;"
         id="tspan5478-9-2-9" /></text>
  </g>
</svg>
